[{
	"name" : "Ignacio",
	"saldo" : 95000,
	"categoria" : 2,
	"banco" : "galicia"
},
{
	"name" : "Juan",
	"saldo" : 32000,
	"categoria" : 2,
	"banco" : "frances"
},
{
	"name" : "Franco",
	"saldo" : 302500,
	"categoria" : 1,
	"banco" : "city"
},
{
	"name" : "Jorge",
	"saldo" : 3099999,
	"categoria" : 3,
	"banco" : "nacion"
}]